{"success":true,"count":20,"total":63,"page":1,"limit":20,"totalPages":4,"data":[{"_id":"69002c1a80914e630609f77d","id":100,"name":"Bia ký 318","name_en":null,"cate_id":"69002bf480914e630609f75c","photo":["https://myson3d-preprod.api.dfm-engineering.com/uploads/assets/photo/1763629830474-986229991.JPG","https://myson3d-preprod.api.dfm-engineering.com/uploads/assets/photo/1763632209982-178324433.JPG","https://myson3d-preprod.api.dfm-engineering.com/uploads/assets/photo/1763632210009-984262746.JPG"],"description":"Bia ký gồm 2 phần: Phần bia ký và bệ đỡ. Phần bia có dạng cánh sen đứng , hai cánh uốn cong. Bia cao 148cm, rộng trên 86cm, thu hẹp dần về đáy còn 70cm. Hai mặt diện và mặt bên có khắc chữ Chămpa cổ. mặt trước khắc 23 dòng, cạnh bên có 14 dòng, mặt sau có 20 dòng. Đầu và cuối các dòng đều có dạng tựa đề. Bệ đợ là khối đá hình hộp gần vuông (99x97x58cm), lòng có gờ mộng gắn kết với bia. 4 cạnh mặt đế vát ta ly cắt góc cạnh. Bia có 18 vết sứt lớn nhỏ.","description_en":null,"code":"840201503000103.MS.D:318/Đ318","symbol":"","length":"","width":"","height":"","area":"","link_cloud":"","link_3d":"","docs":null,"language":"vi","user_id":"68ff147a7fc46b4b1ece5f4a","createdAt":"2025-10-28T02:36:10.852Z","updatedAt":"2025-11-20T10:11:15.629Z","access_restriction":"Phổ biến","appraisal_agency":"Hội đồng giám định - Ban quản lý di tích","appraisal_date":null,"artifact_type":"Di vật","components":"2","conservation_status":"Sứt","era":"Thế kỷ X?","material":"Đá, đá quý","origin":"Vốn có","owner":"Admin","period":"Bắc thuộc","quantity":1,"registration_date":"2003-09-27T00:00:00.000Z","storage_location":"Tại bảo tàng, di tích","category_name":"Bia Đá","user_name":"Admin","qrcode":null},{"_id":"690836dab2e58cd7e7fe81d9","id":101,"name":"Bia ký","name_en":null,"cate_id":"69002bf480914e630609f75c","photo":["https://myson3d-preprod.api.dfm-engineering.com/uploads/assets/photo/1763630516547-354083161.JPG","https://myson3d-preprod.api.dfm-engineering.com/uploads/assets/photo/1763630516723-177338216.JPG","https://myson3d-preprod.api.dfm-engineering.com/uploads/assets/photo/1763630516661-596175760.JPG","https://myson3d-preprod.api.dfm-engineering.com/uploads/assets/photo/1763630516593-492041778.JPG"],"description":"Bia ký có dạng hình cánh sen thẳng, đầu dưới có chốt mộng gắng với bệ đỡ. Hai mặt phẳng rộng 58,5cm khắc những dòng chữ Chămpa cổ. mặt trước khắc 32 dòng, mặt sau khắc 25 dòngnguyên và số dòng không đều, không thẳng hàng. Nhìn chung nét chữ rõ, tròn góc, khoảng cách dòng rất đều và đẹp. mặt trước bị 4 mảnh sứt nhỏ.","description_en":null,"code":"840201503000103.MS.D:316/Đ316","symbol":"","length":"","width":"","height":"","area":"","link_cloud":"","link_3d":"","docs":null,"language":"vi","user_id":"68ff147a7fc46b4b1ece5f4a","createdAt":"2025-11-03T05:00:10.507Z","updatedAt":"2025-11-20T10:11:30.314Z","access_restriction":"Phổ biến","appraisal_agency":"Hội đồng giám định - Ban quản lý di tích","appraisal_date":null,"artifact_type":"Di vật","components":"1","conservation_status":"Sứt","era":"Tk X - XI","material":"Đá, đá quý","origin":"Vốn có","owner":"Admin","period":"Bắc thuộc","quantity":1,"registration_date":null,"storage_location":"Tại bảo tàng, di tích","category_name":"Bia Đá","user_name":"Admin","qrcode":null},{"_id":"69083721b2e58cd7e7fe81ed","id":102,"name":"Bò thần","name_en":null,"cate_id":"69002bfe80914e630609f76c","photo":["https://myson3d-preprod.api.dfm-engineering.com/uploads/assets/photo/1763632728807-408872208.png","https://myson3d-preprod.api.dfm-engineering.com/uploads/assets/photo/1763632728808-767642350.jpg","https://myson3d-preprod.api.dfm-engineering.com/uploads/assets/photo/1763632728810-293667305.png"],"description":"","description_en":null,"code":"BTND_002","symbol":"","length":"","width":"","height":"","area":"","link_cloud":"","link_3d":"","docs":null,"language":"vi","user_id":"68ff147a7fc46b4b1ece5f4a","createdAt":"2025-11-03T05:01:21.172Z","updatedAt":"2025-11-20T09:58:48.827Z","access_restriction":null,"appraisal_agency":null,"appraisal_date":null,"artifact_type":null,"components":null,"conservation_status":null,"era":null,"material":null,"origin":null,"owner":"Admin","period":null,"quantity":null,"registration_date":null,"storage_location":null,"category_name":"Tượng","user_name":"Admin","qrcode":null},{"_id":"69083801b2e58cd7e7fe828e","id":103,"name":"Bò thần Nandin","name_en":null,"cate_id":"69002bfe80914e630609f76c","photo":["https://myson3d-preprod.api.dfm-engineering.com/uploads/assets/photo/1763631244531-38470917.JPG","https://myson3d-preprod.api.dfm-engineering.com/uploads/assets/photo/1763631436072-838605494.png","https://myson3d-preprod.api.dfm-engineering.com/uploads/assets/photo/1763631371503-770702907.JPG","https://myson3d-preprod.api.dfm-engineering.com/uploads/assets/photo/1763631371531-825662747.JPG"],"description":"Bò thần khắc tạc dạng tượng tròn, tư thế nằm 4 chân xếp dưới mình, các móng guốc hiện rõ, đuôio luồng qua bụng rồi vắt lên chân sau. Đầu ngước nhìn về phía trước với đôi mắt hiền từ, sừng và tai đã sứt, yếm trải dài trước ngực (mất một phần), thân bò tròn trịn, u nhô cao, phía sau thể hiện dương tính. Bò thần bị sứt sau u xéo đến phần yếm được ghép lại, nhưng góc sau đã sứt. Bò thần nằm trên bệ mỏng (80x44x7cm).","description_en":null,"code":"840201503000103.MS.D:306/Đ306","symbol":"","length":"","width":"","height":"","area":"","link_cloud":"","link_3d":"","docs":null,"language":"vi","user_id":"68ff147a7fc46b4b1ece5f4a","createdAt":"2025-11-03T05:05:05.396Z","updatedAt":"2025-11-20T10:11:55.078Z","access_restriction":"Phổ biến","appraisal_agency":"Hội đồng giám định - Ban quản lý di tích","appraisal_date":null,"artifact_type":"Di vật","components":"1","conservation_status":"Gãy","era":"Tk IX - XI","material":"Đá, đá quý","origin":"Vốn có","owner":"Admin","period":"Bắc thuộc","quantity":1,"registration_date":null,"storage_location":"Tại bảo tàng, di tích","category_name":"Tượng","user_name":"Admin","qrcode":null},{"_id":"6908454eb2e58cd7e7fe830b","id":104,"name":"Mảnh vở ngỗng thần HamSa","name_en":null,"cate_id":"69002bfe80914e630609f76c","photo":["https://myson3d-preprod.api.dfm-engineering.com/uploads/assets/photo/1763632079080-36162811.jpg","https://myson3d-preprod.api.dfm-engineering.com/uploads/assets/photo/1763632079082-407565348.JPG","https://myson3d-preprod.api.dfm-engineering.com/uploads/assets/photo/1763632079107-506027326.png"],"description":"Hiện vật gồm 6 mảnh vở đất nung ghép lại với nhau tạo nên một phần thân của HamSa với 1 số hoa văn thể hiện của loài ngỗng trên thân.","description_en":null,"code":"840201503000118MS.1752 /ĐN:822","symbol":"","length":"","width":"","height":"","area":"","link_cloud":"","link_3d":"","docs":null,"language":"vi","user_id":"68ff147a7fc46b4b1ece5f4a","createdAt":"2025-11-03T06:01:50.802Z","updatedAt":"2025-11-20T09:47:59.137Z","access_restriction":"Phổ biến","appraisal_agency":"Hội đồng giám định - Ban quản lý di tích","appraisal_date":null,"artifact_type":"Di vật","components":"6","conservation_status":"Sứt","era":"Tk XII","material":"Gốm, sành sứ","origin":"Khai quật","owner":"Admin","period":"Lý / Trần","quantity":1,"registration_date":null,"storage_location":"Tại bảo tàng, di tích","category_name":"Tượng","user_name":"Admin","qrcode":null},{"_id":"69084592b2e58cd7e7fe8337","id":105,"name":"Diềm mái 3 cạnh","name_en":null,"cate_id":"69002bfe80914e630609f76c","photo":["https://myson3d-preprod.api.dfm-engineering.com/uploads/assets/photo/1763632933681-24524991.jpg","https://myson3d-preprod.api.dfm-engineering.com/uploads/assets/photo/1763632933685-867868134.JPG"],"description":"Hiện vật là những khối đất nung bị vỡ gắn lại, có trang trí hoa văn ở trước, mặt sau có chui.","description_en":null,"code":"840201503000118MS.1730 /ĐN:800","symbol":"","length":"","width":"","height":"","area":"","link_cloud":"","link_3d":"","docs":null,"language":"vi","user_id":"68ff147a7fc46b4b1ece5f4a","createdAt":"2025-11-03T06:02:58.143Z","updatedAt":"2025-11-20T10:02:13.726Z","access_restriction":"Phổ biến","appraisal_agency":"Hội đồng giám định - Ban quản lý di tích","appraisal_date":null,"artifact_type":"Di vật","components":"2","conservation_status":"Sứt","era":null,"material":"Gốm, sành sứ","origin":"Khai quật","owner":"Admin","period":"Lý / Trần","quantity":1,"registration_date":null,"storage_location":"Tại bảo tàng, di tích","category_name":"Tượng","user_name":"Admin","qrcode":null},{"_id":"690845d9b2e58cd7e7fe8366","id":106,"name":"Đỉnh chóp nhọn","name_en":null,"cate_id":"69002bf480914e630609f75c","photo":["https://myson3d-preprod.api.dfm-engineering.com/uploads/assets/photo/1763633170693-705513867.png","https://myson3d-preprod.api.dfm-engineering.com/uploads/assets/photo/1763633170667-946102326.JPG","https://myson3d-preprod.api.dfm-engineering.com/uploads/assets/photo/1763633170695-710851067.png","https://myson3d-preprod.api.dfm-engineering.com/uploads/assets/photo/1763633170696-838162642.png"],"description":"","description_en":null,"code":"DCN_001","symbol":"","length":"","width":"","height":"","area":"","link_cloud":"","link_3d":"","docs":null,"language":"vi","user_id":"68ff147a7fc46b4b1ece5f4a","createdAt":"2025-11-03T06:04:09.912Z","updatedAt":"2025-11-20T10:12:17.405Z","access_restriction":null,"appraisal_agency":null,"appraisal_date":null,"artifact_type":null,"components":null,"conservation_status":null,"era":null,"material":null,"origin":null,"owner":"Admin","period":null,"quantity":null,"registration_date":null,"storage_location":null,"category_name":"Bia Đá","user_name":"Admin","qrcode":null},{"_id":"6908460bb2e58cd7e7fe8398","id":107,"name":"Linh vật Gajasimha","name_en":null,"cate_id":"69002bfe80914e630609f76c","photo":["https://myson3d-preprod.api.dfm-engineering.com/uploads/assets/photo/1763634252171-960297117.png","https://myson3d-preprod.api.dfm-engineering.com/uploads/assets/photo/1763633917401-186549420.jpg","https://myson3d-preprod.api.dfm-engineering.com/uploads/assets/photo/1763633917398-857177182.jpg","https://myson3d-preprod.api.dfm-engineering.com/uploads/assets/photo/1763633917404-660852953.JPG"],"description":"Hiện vật gồm nhiều mảnh vở ghép lại, phần miệng bị sứt mẻ. Hiện vật trong tư thế đứng mình sư tử đầu voi.","description_en":null,"code":"840201503000118MS.1796 /Đn:849 số khác 0582","symbol":"","length":"","width":"","height":"","area":"","link_cloud":"","link_3d":"","docs":null,"language":"vi","user_id":"68ff147a7fc46b4b1ece5f4a","createdAt":"2025-11-03T06:04:59.484Z","updatedAt":"2025-11-20T10:24:23.990Z","access_restriction":"Phổ biến","appraisal_agency":"Hội đồng giám định - Ban quản lý di tích","appraisal_date":null,"artifact_type":"Di vật","components":"3","conservation_status":"Sứt","era":"Tk XII","material":"Gốm, sành sứ","origin":"Khai quật","owner":"Ban Quản Lý Di Sản Văn Hóa","period":"Lý / Trần","quantity":1,"registration_date":null,"storage_location":"Tại bảo tàng, di tích","category_name":"Tượng","user_name":"Admin","qrcode":null},{"_id":"69084699b2e58cd7e7fe844a","id":108,"name":"Đầu Linh dương (gazelle)","name_en":null,"cate_id":"69002bfe80914e630609f76c","photo":["https://myson3d-preprod.api.dfm-engineering.com/uploads/assets/photo/1763634380485-783627459.png","https://myson3d-preprod.api.dfm-engineering.com/uploads/assets/photo/1763633491019-214192138.jpg","https://myson3d-preprod.api.dfm-engineering.com/uploads/assets/photo/1763633491023-687864905.JPG","https://myson3d-preprod.api.dfm-engineering.com/uploads/assets/photo/1763634380487-598079162.png","https://myson3d-preprod.api.dfm-engineering.com/uploads/assets/photo/1763634380488-126225882.png"],"description":"Hiện vật gồm 4 mảnh vở ghép lại tạo nên một cái đầu linh dương còn nguyên vẹn và phần cổ bị vỡ.","description_en":null,"code":"840201503000118MS.1756 /ĐN:826 số khác 1271/1020","symbol":"","length":"","width":"","height":"","area":"","link_cloud":"","link_3d":"","docs":null,"language":"vi","user_id":"68ff147a7fc46b4b1ece5f4a","createdAt":"2025-11-03T06:07:21.427Z","updatedAt":"2025-11-20T10:26:33.259Z","access_restriction":"Phổ biến","appraisal_agency":"Hội đồng giám định - Ban quản lý di tích","appraisal_date":null,"artifact_type":"Di vật","components":"4","conservation_status":"Sứt","era":"Tk XII","material":"Gốm, sành sứ","origin":"Khai quật","owner":"Ban Quản Lý Di Sản Văn Hóa","period":"Lý / Trần","quantity":1,"registration_date":null,"storage_location":"Tại bảo tàng, di tích","category_name":"Tượng","user_name":"Admin","qrcode":null},{"_id":"690846d6b2e58cd7e7fe8482","id":109,"name":"Họa tiết hoa cỏ","name_en":null,"cate_id":"69002bf480914e630609f75c","photo":["https://myson3d-preprod.api.dfm-engineering.com/uploads/assets/photo/1763634497083-842981271.png","https://myson3d-preprod.api.dfm-engineering.com/uploads/assets/photo/1763634497085-564008046.png","https://myson3d-preprod.api.dfm-engineering.com/uploads/assets/photo/1763633760934-669347946.jpg","https://myson3d-preprod.api.dfm-engineering.com/uploads/assets/photo/1763633760934-160918003.jpg"],"description":"Hiện vật dùng để trang trí góc, có thể nói là tương đối còn nguyên vẹn với hai chữ Trần cả hai mặt họa tiết trên hiện vật tương đối còn nguyên.","description_en":null,"code":"840201503000118MS.1799 /Đn:852 số khác 0578","symbol":"","length":"","width":"","height":"","area":"","link_cloud":"","link_3d":"","docs":null,"language":"vi","user_id":"68ff147a7fc46b4b1ece5f4a","createdAt":"2025-11-03T06:08:22.097Z","updatedAt":"2025-11-20T10:28:31.270Z","access_restriction":"Phổ biến","appraisal_agency":"Hội đồng giám định - Ban quản lý di tích","appraisal_date":null,"artifact_type":"Di vật","components":null,"conservation_status":"Sứt","era":"Tk XII","material":"Gốm, sành sứ","origin":"Khai quật","owner":"Ban Quản Lý Di Sản Văn Hóa","period":"Lý / Trần","quantity":1,"registration_date":null,"storage_location":"Tại bảo tàng, di tích","category_name":"Bia Đá","user_name":"Admin","qrcode":null},{"_id":"69084713b2e58cd7e7fe84bd","id":110,"name":"Họa tiết hoa cỏ","name_en":null,"cate_id":"69002bf480914e630609f75c","photo":["https://myson3d-preprod.api.dfm-engineering.com/uploads/assets/photo/1763629513127-853005342.jpg","https://myson3d-preprod.api.dfm-engineering.com/uploads/assets/photo/1763629513132-405580494.jpg","https://myson3d-preprod.api.dfm-engineering.com/uploads/assets/photo/1763634071741-282945848.png","https://myson3d-preprod.api.dfm-engineering.com/uploads/assets/photo/1763634071743-680371679.png"],"description":"Hiện vật gồm 3 mảnh vở ghép lại với nhau, một mặt trang trí họa tiết, mặt còn lại trơn có khắc chữ trần.","description_en":null,"code":"840201503000118MS.1768 /Đn 838 số khác 0313","symbol":"","length":"","width":"","height":"","area":"","link_cloud":"","link_3d":"","docs":null,"language":"vi","user_id":"68ff147a7fc46b4b1ece5f4a","createdAt":"2025-11-03T06:09:23.558Z","updatedAt":"2025-11-20T10:21:11.759Z","access_restriction":"Phổ biến","appraisal_agency":"Các cơ quan tổ chức khác","appraisal_date":null,"artifact_type":"Di vật","components":"3","conservation_status":"Sứt","era":"Tk XII","material":"Gốm, sành sứ","origin":"Khai quật","owner":"Ban Quản Lý Di Sản Văn Hóa","period":"Lý / Trần","quantity":1,"registration_date":"2018-07-09T00:00:00.000Z","storage_location":"Tại bảo tàng, di tích","category_name":"Bia Đá","user_name":"Admin","qrcode":null},{"_id":"6908474db2e58cd7e7fe84fb","id":111,"name":"Mặt nạ Kala","name_en":null,"cate_id":"69002bfe80914e630609f76c","photo":["https://myson3d-preprod.api.dfm-engineering.com/uploads/assets/photo/1763629913248-161646773.jpg","https://myson3d-preprod.api.dfm-engineering.com/uploads/assets/photo/1763630774172-155782116.jpg","https://myson3d-preprod.api.dfm-engineering.com/uploads/assets/photo/1763630774174-321187610.JPG"],"description":"Hiện vật là một khối đất nung có mặt trước trang trí hoa văn hình mặt người dữ tợn, bị sứt mặt bên má và mất 1 con mắt, mặt sau trơn.","description_en":null,"code":"840201503000118MS.1736 /ĐN:806 số khác 0892","symbol":"","length":"","width":"","height":"","area":"","link_cloud":"","link_3d":"","docs":null,"language":"vi","user_id":"68ff147a7fc46b4b1ece5f4a","createdAt":"2025-11-03T06:10:21.176Z","updatedAt":"2025-11-20T09:26:14.225Z","access_restriction":"Phổ biến","appraisal_agency":"Các cơ quan tổ chức khác","appraisal_date":null,"artifact_type":"Di vật","components":null,"conservation_status":"Sứt","era":"Tk XII","material":"Gốm, sành sứ","origin":"Khai quật","owner":"Ban Quản Lý Di Sản Văn Hóa","period":"Lý / Trần","quantity":1,"registration_date":"2018-02-27T00:00:00.000Z","storage_location":"Tại bảo tàng, di tích","category_name":"Tượng","user_name":"Admin","qrcode":null},{"_id":"6908477eb2e58cd7e7fe853c","id":112,"name":"Nữ Thần Laskmi","name_en":null,"cate_id":"69002bfe80914e630609f76c","photo":["https://myson3d-preprod.api.dfm-engineering.com/uploads/assets/photo/1763633668483-836824216.png","https://myson3d-preprod.api.dfm-engineering.com/uploads/assets/photo/1763633668488-21901483.png","https://myson3d-preprod.api.dfm-engineering.com/uploads/assets/photo/1763633668486-155668528.png","https://myson3d-preprod.api.dfm-engineering.com/uploads/assets/photo/1763630431120-716206338.jpg","https://myson3d-preprod.api.dfm-engineering.com/uploads/assets/photo/1763630431018-663175879.bmp","https://myson3d-preprod.api.dfm-engineering.com/uploads/assets/photo/1763630431123-96153500.JPG"],"description":"Hiện vật gồm 2 mảnh vở ghép lại tạo nên tượng nữ thần Laskmi tương đối còn nguyên vẹn trong tư thế ngồi, một tay cầm một vật.","description_en":null,"code":"840201503000118MS.1798 /Đn:851 số khác 0887,0904","symbol":"","length":"","width":"","height":"","area":"","link_cloud":"","link_3d":"","docs":null,"language":"vi","user_id":"68ff147a7fc46b4b1ece5f4a","createdAt":"2025-11-03T06:11:10.309Z","updatedAt":"2025-11-20T10:21:45.811Z","access_restriction":"Phổ biến","appraisal_agency":"Các cơ quan tổ chức khác","appraisal_date":null,"artifact_type":"Di vật","components":"2","conservation_status":"Vỡ","era":"Tk XII","material":"Gốm, sành sứ","origin":"Khai quật","owner":"Ban Quản Lý Di Sản Văn Hóa","period":"Lý / Trần","quantity":1,"registration_date":null,"storage_location":"Tại bảo tàng, di tích","category_name":"Tượng","user_name":"Admin","qrcode":null},{"_id":"690847c7b2e58cd7e7fe8583","id":113,"name":"Linga - Yoni","name_en":null,"cate_id":"69002bfe80914e630609f76c","photo":["https://myson3d-preprod.api.dfm-engineering.com/uploads/assets/photo/1763633880670-533231991.JPG","https://myson3d-preprod.api.dfm-engineering.com/uploads/assets/photo/1763633880647-594351095.JPG","https://myson3d-preprod.api.dfm-engineering.com/uploads/assets/photo/1763633880695-699894624.JPG","https://myson3d-preprod.api.dfm-engineering.com/uploads/assets/photo/1763633880714-523384064.JPG","https://myson3d-preprod.api.dfm-engineering.com/uploads/assets/photo/1763633880735-2474929.JPG"],"description":"Hiện vật thể hiện Linga - Yoni gắn liền nhau, Yoni hình vuông cạnh dài 85cm, dày 15cm, các mặt phẳng nhẵn, mặt khoét trủng hình vuông hơi vát cạnh, kích thước lòng cạnh dưới 43cm, cạnh ttrên 49cm tạo lòng sâu 2,7cm. vòi Yoni vươn khỏi thân 28cm, mặt vòi có rãnh thoát nước từ lòng dẫn ra tạo rãnh hẹp giữa vòi, rãnh thu hẹp dần về đầu vòi, rãnh rộng 1,6 - 3,1cm, sâu 2,7 - 3,4cm.","description_en":null,"code":"840201503000103.MS.F.948/Đ834","symbol":"","length":"","width":"","height":"","area":"","link_cloud":"","link_3d":"","docs":null,"language":"vi","user_id":"68ff147a7fc46b4b1ece5f4a","createdAt":"2025-11-03T06:12:23.508Z","updatedAt":"2025-11-20T10:21:55.684Z","access_restriction":"Phổ biến","appraisal_agency":"Hội đồng giám định - Ban quản lý di tích","appraisal_date":null,"artifact_type":"Di vật","components":"1","conservation_status":"Sứt","era":null,"material":"Đá, đá quý","origin":"Vốn có","owner":"Admin","period":"Bắc thuộc","quantity":1,"registration_date":null,"storage_location":"Tại bảo tàng, di tích","category_name":"Tượng","user_name":"Admin","qrcode":null},{"_id":"69084888b2e58cd7e7fe85cb","id":114,"name":"Makara","name_en":null,"cate_id":"69002bf480914e630609f75c","photo":["https://myson3d-preprod.api.dfm-engineering.com/uploads/assets/photo/1763633433177-205643456.png","https://myson3d-preprod.api.dfm-engineering.com/uploads/assets/photo/1763633433179-367530434.png","https://myson3d-preprod.api.dfm-engineering.com/uploads/assets/photo/1763633433180-541500434.png"],"description":"Hiện vật là nhiều khối đất nung bị vở gắn lại với nhau tạo nên một họa tiết để trang trí ở các góc đền tháp. Mặt trước có hoa văn trang trí, mặt sau trơn.","description_en":null,"code":"840201503000118MS.1737 /ĐN 807 số khác 1469","symbol":"","length":"","width":"","height":"","area":"","link_cloud":"","link_3d":"","docs":null,"language":"vi","user_id":"68ff147a7fc46b4b1ece5f4a","createdAt":"2025-11-03T06:15:36.808Z","updatedAt":"2025-11-20T10:10:33.195Z","access_restriction":"Phổ biến","appraisal_agency":"Hội đồng giám định - Ban quản lý di tích","appraisal_date":null,"artifact_type":"Di vật","components":null,"conservation_status":"Sứt","era":"Tk XII","material":"Gốm, sành sứ","origin":"Khai quật","owner":"Ban Quản Lý Di Sản Văn Hóa","period":"Lý / Trần","quantity":1,"registration_date":null,"storage_location":"Tại bảo tàng, di tích","category_name":"Bia Đá","user_name":"Admin","qrcode":null},{"_id":"690848bbb2e58cd7e7fe8615","id":115,"name":"TrucuaC2","name_en":null,"cate_id":"69002bfe80914e630609f76c","photo":["https://myson3d-preprod.api.dfm-engineering.com/uploads/assets/photo/1763631564535-354529425.JPG","https://myson3d-preprod.api.dfm-engineering.com/uploads/assets/photo/1763631564573-777108585.JPG","https://myson3d-preprod.api.dfm-engineering.com/uploads/assets/photo/1763631564610-632271438.JPG","https://myson3d-preprod.api.dfm-engineering.com/uploads/assets/photo/1763631564642-504172432.JPG","https://myson3d-preprod.api.dfm-engineering.com/uploads/assets/photo/1763631564687-578632677.JPG","https://myson3d-preprod.api.dfm-engineering.com/uploads/assets/photo/1763631564724-357301748.JPG"],"description":"Đế trụ: (/Đ230)\r\nKhối đá hình hộp chữ nhật, trên mặt có lỗ mộng (16x14x7,5cm).\r\n\r\nĐế trụ: (/Đ232)\r\nKhối đá hình hộp chữ nhật, bề mặt có lỗ mộng (14,5x12,5x8,5cm).\r\n\r\nTrụ: \r\nKhối đá hình trụ, có dạng bát giác. Một mặt và 1/2 mặt tiếp giáp với nó phẳng để áp tường. Phần còn lại thể hiện 6 cạnh có kích thước (5-9-13-9,5-13-5 cm).Chính giữa và hai đầu thân trụ là gờ giật cấp kiểu bát giác, Hai đầu thể hiện vuông, dày 15cm. Chính giữa 2 đầu là hai chốt mộng (10x10x5,5cm) và (10x7,5x5,5cm).","description_en":null,"code":"840201503000103.MS.C2:236/Đ236","symbol":"","length":"","width":"","height":"","area":"","link_cloud":"","link_3d":"","docs":null,"language":"vi","user_id":"68ff147a7fc46b4b1ece5f4a","createdAt":"2025-11-03T06:16:27.304Z","updatedAt":"2025-11-20T09:41:30.780Z","access_restriction":"Phổ biến","appraisal_agency":"Hội đồng giám định - Ban quản lý di tích","appraisal_date":null,"artifact_type":"Di vật","components":"3","conservation_status":"Nguyên vẹn","era":"Tk X - XII","material":"Đá, đá quý","origin":"Vốn có","owner":"Ban Quản Lý Di Tích & Du Lịch","period":"Ngô, Đinh, Tiền Lê","quantity":3,"registration_date":null,"storage_location":"Tại bảo tàng, di tích","category_name":"Tượng","user_name":"Admin","qrcode":null},{"owner":null,"origin":null,"quantity":null,"components":null,"registration_date":null,"appraisal_agency":null,"appraisal_date":null,"period":null,"artifact_type":null,"era":null,"material":null,"conservation_status":null,"storage_location":null,"access_restriction":null,"_id":"690848f8b2e58cd7e7fe866b","id":116,"name":"TrucuaD2","name_en":null,"cate_id":"69002bfe80914e630609f76c","photo":["https://myson3d-preprod.api.dfm-engineering.com/uploads/assets/photo/1762150648464-623642341.png"],"description":"","description_en":null,"code":"TC_002","symbol":"","length":"","width":"","height":"","area":"","link_cloud":"","link_3d":"","docs":null,"language":"vi","user_id":"68ff147a7fc46b4b1ece5f4a","createdAt":"2025-11-03T06:17:28.482Z","updatedAt":"2025-11-03T06:17:28.482Z","category_name":"Tượng","user_name":"Admin","qrcode":null},{"owner":null,"origin":null,"quantity":null,"components":null,"registration_date":null,"appraisal_agency":null,"appraisal_date":null,"period":null,"artifact_type":null,"era":null,"material":null,"conservation_status":null,"storage_location":null,"access_restriction":null,"_id":"6908492ab2e58cd7e7fe86bb","id":117,"name":"TrucuaF1","name_en":null,"cate_id":"69002bfe80914e630609f76c","photo":["https://myson3d-preprod.api.dfm-engineering.com/uploads/assets/photo/1762150698023-796513413.png"],"description":"","description_en":null,"code":"TC_003","symbol":"","length":"","width":"","height":"","area":"","link_cloud":"","link_3d":"","docs":null,"language":"vi","user_id":"68ff147a7fc46b4b1ece5f4a","createdAt":"2025-11-03T06:18:18.042Z","updatedAt":"2025-11-03T06:18:18.042Z","category_name":"Tượng","user_name":"Admin","qrcode":null},{"owner":null,"origin":null,"quantity":null,"components":null,"registration_date":null,"appraisal_agency":null,"appraisal_date":null,"period":null,"artifact_type":null,"era":null,"material":null,"conservation_status":null,"storage_location":null,"access_restriction":null,"_id":"6908496ab2e58cd7e7fe870e","id":118,"name":"Warehousephudieu","name_en":null,"cate_id":"69002bf480914e630609f75c","photo":["https://myson3d-preprod.api.dfm-engineering.com/uploads/assets/photo/1762150762232-547599297.png"],"description":"","description_en":null,"code":"W_001","symbol":"","length":"","width":"","height":"","area":"","link_cloud":"","link_3d":"","docs":null,"language":"vi","user_id":"68ff147a7fc46b4b1ece5f4a","createdAt":"2025-11-03T06:19:22.253Z","updatedAt":"2025-11-03T06:19:22.253Z","category_name":"Bia Đá","user_name":"Admin","qrcode":null},{"owner":null,"origin":null,"quantity":null,"components":null,"registration_date":null,"appraisal_agency":null,"appraisal_date":null,"period":null,"artifact_type":null,"era":null,"material":null,"conservation_status":null,"storage_location":null,"access_restriction":null,"_id":"690849b9b2e58cd7e7fe8764","id":119,"name":"Warehousephudieu2","name_en":null,"cate_id":"69002bf480914e630609f75c","photo":["https://myson3d-preprod.api.dfm-engineering.com/uploads/assets/photo/1762150841367-231269418.png"],"description":"","description_en":null,"code":"W_002","symbol":"","length":"","width":"","height":"","area":"","link_cloud":"","link_3d":"","docs":null,"language":"vi","user_id":"68ff147a7fc46b4b1ece5f4a","createdAt":"2025-11-03T06:20:41.381Z","updatedAt":"2025-11-03T06:20:41.381Z","category_name":"Bia Đá","user_name":"Admin","qrcode":null}]}